^C:\USERS\40168316\DOCUMENTS\CW1-GRAPHICS-40168316\051 SIMPLE AMBIENT LIGHTING\MAIN.CPP
C:\USERS\40168316\DOCUMENTS\CW1-GRAPHICS-40168316\051 SIMPLE AMBIENT LIGHTING\DEBUG\VC120.PDB
C:\USERS\40168316\DOCUMENTS\CW1-GRAPHICS-40168316\051 SIMPLE AMBIENT LIGHTING\DEBUG\VC120.IDB
C:\USERS\40168316\DOCUMENTS\CW1-GRAPHICS-40168316\051 SIMPLE AMBIENT LIGHTING\DEBUG\MAIN.OBJ
