^C:\USERS\40168316\DOCUMENTS\CW1-GRAPHICS-40168316\056 SPECULAR LIGHTING\MAIN.CPP
C:\USERS\40168316\DOCUMENTS\CW1-GRAPHICS-40168316\056 SPECULAR LIGHTING\DEBUG\VC120.PDB
C:\USERS\40168316\DOCUMENTS\CW1-GRAPHICS-40168316\056 SPECULAR LIGHTING\DEBUG\VC120.IDB
C:\USERS\40168316\DOCUMENTS\CW1-GRAPHICS-40168316\056 SPECULAR LIGHTING\DEBUG\MAIN.OBJ
