^C:\USERS\40168316\DOCUMENTS\CW1-GRAPHICS-40168316\019 RENDERING A CUBE\DEBUG\MAIN.OBJ|C:\USERS\40168316\DOCUMENTS\CW1-GRAPHICS-40168316\DEBUG\LIBENUGRAPHICS.LIB
C:\USERS\40168316\DOCUMENTS\CW1-GRAPHICS-40168316\DEBUG\019 RENDERING A CUBE.ILK
C:\USERS\40168316\DOCUMENTS\CW1-GRAPHICS-40168316\DEBUG\019 RENDERING A CUBE.EXE
C:\USERS\40168316\DOCUMENTS\CW1-GRAPHICS-40168316\DEBUG\019 RENDERING A CUBE.PDB
