^C:\USERS\40168316\DOCUMENTS\CW1-GRAPHICS-40168316\006 RENDERING A QUAD 4\DEBUG\MAIN.OBJ|C:\USERS\40168316\DOCUMENTS\CW1-GRAPHICS-40168316\DEBUG\LIBENUGRAPHICS.LIB
C:\USERS\40168316\DOCUMENTS\CW1-GRAPHICS-40168316\DEBUG\006 RENDERING A QUAD 4.ILK
C:\USERS\40168316\DOCUMENTS\CW1-GRAPHICS-40168316\DEBUG\006 RENDERING A QUAD 4.EXE
C:\USERS\40168316\DOCUMENTS\CW1-GRAPHICS-40168316\DEBUG\006 RENDERING A QUAD 4.PDB
