^C:\USERS\40168316\DOCUMENTS\CW1-GRAPHICS-40168316\035 DISSOLVE SHADER\DEBUG\MAIN.OBJ|C:\USERS\40168316\DOCUMENTS\CW1-GRAPHICS-40168316\DEBUG\LIBENUGRAPHICS.LIB
C:\USERS\40168316\DOCUMENTS\CW1-GRAPHICS-40168316\DEBUG\035 DISSOLVE SHADER.ILK
C:\USERS\40168316\DOCUMENTS\CW1-GRAPHICS-40168316\DEBUG\035 DISSOLVE SHADER.EXE
C:\USERS\40168316\DOCUMENTS\CW1-GRAPHICS-40168316\DEBUG\035 DISSOLVE SHADER.PDB
