^C:\USERS\40168316\DOCUMENTS\CW1-GRAPHICS-40168316\024 SPHERE BY SUBDIVISION\MAIN.CPP
C:\USERS\40168316\DOCUMENTS\CW1-GRAPHICS-40168316\024 SPHERE BY SUBDIVISION\DEBUG\VC120.PDB
C:\USERS\40168316\DOCUMENTS\CW1-GRAPHICS-40168316\024 SPHERE BY SUBDIVISION\DEBUG\VC120.IDB
C:\USERS\40168316\DOCUMENTS\CW1-GRAPHICS-40168316\024 SPHERE BY SUBDIVISION\DEBUG\MAIN.OBJ
