^C:\USERS\40168316\DOCUMENTS\CW1-GRAPHICS-40168316\024 SPHERE BY SUBDIVISION\DEBUG\MAIN.OBJ|C:\USERS\40168316\DOCUMENTS\CW1-GRAPHICS-40168316\DEBUG\LIBENUGRAPHICS.LIB
C:\USERS\40168316\DOCUMENTS\CW1-GRAPHICS-40168316\DEBUG\024 SPHERE BY SUBDIVISION.ILK
C:\USERS\40168316\DOCUMENTS\CW1-GRAPHICS-40168316\DEBUG\024 SPHERE BY SUBDIVISION.EXE
C:\USERS\40168316\DOCUMENTS\CW1-GRAPHICS-40168316\DEBUG\024 SPHERE BY SUBDIVISION.PDB
