^C:\USERS\40168316\DOCUMENTS\CW1-GRAPHICS-40168316\054 DIFFUSE LIGHTING 1\DEBUG\MAIN.OBJ|C:\USERS\40168316\DOCUMENTS\CW1-GRAPHICS-40168316\DEBUG\LIBENUGRAPHICS.LIB
C:\USERS\40168316\DOCUMENTS\CW1-GRAPHICS-40168316\DEBUG\054 DIFFUSE LIGHTING 1.ILK
C:\USERS\40168316\DOCUMENTS\CW1-GRAPHICS-40168316\DEBUG\054 DIFFUSE LIGHTING 1.EXE
C:\USERS\40168316\DOCUMENTS\CW1-GRAPHICS-40168316\DEBUG\054 DIFFUSE LIGHTING 1.PDB
