^C:\USERS\40168316\DOCUMENTS\CW1-GRAPHICS-40168316\057 COMBINED LIGHTING\DEBUG\MAIN.OBJ|C:\USERS\40168316\DOCUMENTS\CW1-GRAPHICS-40168316\DEBUG\LIBENUGRAPHICS.LIB
C:\USERS\40168316\DOCUMENTS\CW1-GRAPHICS-40168316\DEBUG\057 COMBINED LIGHTING.ILK
C:\USERS\40168316\DOCUMENTS\CW1-GRAPHICS-40168316\DEBUG\057 COMBINED LIGHTING.EXE
C:\USERS\40168316\DOCUMENTS\CW1-GRAPHICS-40168316\DEBUG\057 COMBINED LIGHTING.PDB
