^C:\USERS\40168316\DOCUMENTS\CW1-GRAPHICS-40168316\012 USING GLM\DEBUG\MAIN.OBJ
C:\USERS\40168316\DOCUMENTS\CW1-GRAPHICS-40168316\DEBUG\012 USING GLM.ILK
C:\USERS\40168316\DOCUMENTS\CW1-GRAPHICS-40168316\DEBUG\012 USING GLM.EXE
C:\USERS\40168316\DOCUMENTS\CW1-GRAPHICS-40168316\DEBUG\012 USING GLM.PDB
