^C:\USERS\40168316\DOCUMENTS\CW1-GRAPHICS-40168316\039 GEOMETRY BUILDER\MAIN.CPP
C:\USERS\40168316\DOCUMENTS\CW1-GRAPHICS-40168316\039 GEOMETRY BUILDER\DEBUG\VC120.PDB
C:\USERS\40168316\DOCUMENTS\CW1-GRAPHICS-40168316\039 GEOMETRY BUILDER\DEBUG\VC120.IDB
C:\USERS\40168316\DOCUMENTS\CW1-GRAPHICS-40168316\039 GEOMETRY BUILDER\DEBUG\MAIN.OBJ
