^C:\USERS\40168316\DOCUMENTS\CW1-GRAPHICS-40168316\046 FREE CAMERA\MAIN.CPP
C:\USERS\40168316\DOCUMENTS\CW1-GRAPHICS-40168316\046 FREE CAMERA\DEBUG\VC120.PDB
C:\USERS\40168316\DOCUMENTS\CW1-GRAPHICS-40168316\046 FREE CAMERA\DEBUG\VC120.IDB
C:\USERS\40168316\DOCUMENTS\CW1-GRAPHICS-40168316\046 FREE CAMERA\DEBUG\MAIN.OBJ
