^C:\USERS\40168316\DOCUMENTS\CW1-GRAPHICS-40168316\059 GOURAUD SHADING\DEBUG\MAIN.OBJ|C:\USERS\40168316\DOCUMENTS\CW1-GRAPHICS-40168316\DEBUG\LIBENUGRAPHICS.LIB
C:\USERS\40168316\DOCUMENTS\CW1-GRAPHICS-40168316\DEBUG\059 GOURAUD SHADING.ILK
C:\USERS\40168316\DOCUMENTS\CW1-GRAPHICS-40168316\DEBUG\059 GOURAUD SHADING.EXE
C:\USERS\40168316\DOCUMENTS\CW1-GRAPHICS-40168316\DEBUG\059 GOURAUD SHADING.PDB
