^C:\USERS\40168316\DOCUMENTS\CW1-GRAPHICS-40168316\036 SIMPLE CELL SHADING\MAIN.CPP
C:\USERS\40168316\DOCUMENTS\CW1-GRAPHICS-40168316\036 SIMPLE CELL SHADING\DEBUG\VC120.PDB
C:\USERS\40168316\DOCUMENTS\CW1-GRAPHICS-40168316\036 SIMPLE CELL SHADING\DEBUG\VC120.IDB
C:\USERS\40168316\DOCUMENTS\CW1-GRAPHICS-40168316\036 SIMPLE CELL SHADING\DEBUG\MAIN.OBJ
