^C:\USERS\40168316\DOCUMENTS\CW1-GRAPHICS-40168316\013 ROTATING TRIANGLE\MAIN.CPP
C:\USERS\40168316\DOCUMENTS\CW1-GRAPHICS-40168316\013 ROTATING TRIANGLE\DEBUG\VC120.PDB
C:\USERS\40168316\DOCUMENTS\CW1-GRAPHICS-40168316\013 ROTATING TRIANGLE\DEBUG\VC120.IDB
C:\USERS\40168316\DOCUMENTS\CW1-GRAPHICS-40168316\013 ROTATING TRIANGLE\DEBUG\MAIN.OBJ
