﻿Build started 19/02/2016 14:25:33.
     1>Project "C:\Users\40168316\Documents\cw1-graphics-40168316\012 Using GLM\012 Using GLM.vcxproj" on node 2 (Build target(s)).
     1>ClCompile:
         C:\Program Files (x86)\Microsoft Visual Studio 12.0\VC\bin\CL.exe /c /ZI /nologo /W3 /WX- /sdl /Od /Oy- /D WIN32 /D _DEBUG /D _CONSOLE /D _LIB /D _UNICODE /D UNICODE /Gm /EHsc /RTC1 /MDd /GS /fp:precise /Zc:wchar_t /Zc:forScope /Fo"Debug\\" /Fd"Debug\vc120.pdb" /Gd /TP /analyze- /errorReport:prompt main.cpp
         main.cpp
       Link:
         C:\Program Files (x86)\Microsoft Visual Studio 12.0\VC\bin\link.exe /ERRORREPORT:PROMPT /OUT:"C:\Users\40168316\Documents\cw1-graphics-40168316\Debug\012 Using GLM.exe" /INCREMENTAL /NOLOGO OpenGL32.lib GLU32.lib glew32.lib glfw3dll.lib FreeImage.lib assimp.lib kernel32.lib user32.lib gdi32.lib winspool.lib comdlg32.lib advapi32.lib shell32.lib ole32.lib oleaut32.lib uuid.lib odbc32.lib odbccp32.lib /MANIFEST /MANIFESTUAC:"level='asInvoker' uiAccess='false'" /manifest:embed /DEBUG /PDB:"C:\Users\40168316\Documents\cw1-graphics-40168316\Debug\012 Using GLM.pdb" /SUBSYSTEM:CONSOLE /TLBID:1 /DYNAMICBASE /NXCOMPAT /IMPLIB:"C:\Users\40168316\Documents\cw1-graphics-40168316\Debug\012 Using GLM.lib" /MACHINE:X86 Debug\main.obj
         012 Using GLM.vcxproj -> C:\Users\40168316\Documents\cw1-graphics-40168316\Debug\012 Using GLM.exe
     1>Done Building Project "C:\Users\40168316\Documents\cw1-graphics-40168316\012 Using GLM\012 Using GLM.vcxproj" (Build target(s)).

Build succeeded.

Time Elapsed 00:00:02.22
