^C:\USERS\40168316\DOCUMENTS\CW1-GRAPHICS-40168316\026 TRANSFORMING A MESH\MAIN.CPP
C:\USERS\40168316\DOCUMENTS\CW1-GRAPHICS-40168316\026 TRANSFORMING A MESH\DEBUG\VC120.PDB
C:\USERS\40168316\DOCUMENTS\CW1-GRAPHICS-40168316\026 TRANSFORMING A MESH\DEBUG\VC120.IDB
C:\USERS\40168316\DOCUMENTS\CW1-GRAPHICS-40168316\026 TRANSFORMING A MESH\DEBUG\MAIN.OBJ
