^C:\USERS\40168316\DOCUMENTS\CW1-GRAPHICS-40168316\060 PHONG SHADING\DEBUG\MAIN.OBJ|C:\USERS\40168316\DOCUMENTS\CW1-GRAPHICS-40168316\DEBUG\LIBENUGRAPHICS.LIB
C:\USERS\40168316\DOCUMENTS\CW1-GRAPHICS-40168316\DEBUG\060 PHONG SHADING.ILK
C:\USERS\40168316\DOCUMENTS\CW1-GRAPHICS-40168316\DEBUG\060 PHONG SHADING.EXE
C:\USERS\40168316\DOCUMENTS\CW1-GRAPHICS-40168316\DEBUG\060 PHONG SHADING.PDB
