^C:\USERS\40168316\DOCUMENTS\CW1-GRAPHICS-40168316\017 FULL TRANSFORMATION\DEBUG\MAIN.OBJ|C:\USERS\40168316\DOCUMENTS\CW1-GRAPHICS-40168316\DEBUG\LIBENUGRAPHICS.LIB
C:\USERS\40168316\DOCUMENTS\CW1-GRAPHICS-40168316\DEBUG\017 FULL TRANSFORMATION.ILK
C:\USERS\40168316\DOCUMENTS\CW1-GRAPHICS-40168316\DEBUG\017 FULL TRANSFORMATION.EXE
C:\USERS\40168316\DOCUMENTS\CW1-GRAPHICS-40168316\DEBUG\017 FULL TRANSFORMATION.PDB
