^C:\USERS\40168316\DOCUMENTS\CW1-GRAPHICS-40168316\003 RENDERING A QUAD 1\MAIN.CPP
C:\USERS\40168316\DOCUMENTS\CW1-GRAPHICS-40168316\003 RENDERING A QUAD 1\DEBUG\VC120.PDB
C:\USERS\40168316\DOCUMENTS\CW1-GRAPHICS-40168316\003 RENDERING A QUAD 1\DEBUG\VC120.IDB
C:\USERS\40168316\DOCUMENTS\CW1-GRAPHICS-40168316\003 RENDERING A QUAD 1\DEBUG\MAIN.OBJ
