^C:\USERS\40168316\DOCUMENTS\CW1-GRAPHICS-40168316\062 SPOT LIGHT\DEBUG\MAIN.OBJ|C:\USERS\40168316\DOCUMENTS\CW1-GRAPHICS-40168316\DEBUG\LIBENUGRAPHICS.LIB
C:\USERS\40168316\DOCUMENTS\CW1-GRAPHICS-40168316\DEBUG\062 SPOT LIGHT.ILK
C:\USERS\40168316\DOCUMENTS\CW1-GRAPHICS-40168316\DEBUG\062 SPOT LIGHT.EXE
C:\USERS\40168316\DOCUMENTS\CW1-GRAPHICS-40168316\DEBUG\062 SPOT LIGHT.PDB
