^C:\USERS\40168316\DOCUMENTS\CW1-GRAPHICS-40168316\LIBENUGRAPHICS\STDAFX.CPP
C:\USERS\40168316\DOCUMENTS\CW1-GRAPHICS-40168316\LIBENUGRAPHICS\DEBUG\LIBENUGRAPHICS.PCH
C:\USERS\40168316\DOCUMENTS\CW1-GRAPHICS-40168316\LIBENUGRAPHICS\DEBUG\VC120.PDB
C:\USERS\40168316\DOCUMENTS\CW1-GRAPHICS-40168316\LIBENUGRAPHICS\DEBUG\VC120.IDB
C:\USERS\40168316\DOCUMENTS\CW1-GRAPHICS-40168316\LIBENUGRAPHICS\DEBUG\STDAFX.OBJ
^C:\USERS\40168316\DOCUMENTS\CW1-GRAPHICS-40168316\LIBENUGRAPHICS\APP.CPP|C:\USERS\40168316\DOCUMENTS\CW1-GRAPHICS-40168316\LIBENUGRAPHICS\ARC_BALL_CAMERA.CPP|C:\USERS\40168316\DOCUMENTS\CW1-GRAPHICS-40168316\LIBENUGRAPHICS\CHASE_CAMERA.CPP|C:\USERS\40168316\DOCUMENTS\CW1-GRAPHICS-40168316\LIBENUGRAPHICS\CUBEMAP.CPP|C:\USERS\40168316\DOCUMENTS\CW1-GRAPHICS-40168316\LIBENUGRAPHICS\DEPTH_BUFFER.CPP|C:\USERS\40168316\DOCUMENTS\CW1-GRAPHICS-40168316\LIBENUGRAPHICS\DIRECTIONAL_LIGHT.CPP|C:\USERS\40168316\DOCUMENTS\CW1-GRAPHICS-40168316\LIBENUGRAPHICS\EFFECT.CPP|C:\USERS\40168316\DOCUMENTS\CW1-GRAPHICS-40168316\LIBENUGRAPHICS\FRAME_BUFFER.CPP|C:\USERS\40168316\DOCUMENTS\CW1-GRAPHICS-40168316\LIBENUGRAPHICS\FREE_CAMERA.CPP|C:\USERS\40168316\DOCUMENTS\CW1-GRAPHICS-40168316\LIBENUGRAPHICS\GEOMETRY.CPP|C:\USERS\40168316\DOCUMENTS\CW1-GRAPHICS-40168316\LIBENUGRAPHICS\GEOMETRY_BUILDER.CPP|C:\USERS\40168316\DOCUMENTS\CW1-GRAPHICS-40168316\LIBENUGRAPHICS\RENDERER.CPP|C:\USERS\40168316\DOCUMENTS\CW1-GRAPHICS-40168316\LIBENUGRAPHICS\SHADOW_MAP.CPP|C:\USERS\40168316\DOCUMENTS\CW1-GRAPHICS-40168316\LIBENUGRAPHICS\TARGET_CAMERA.CPP|C:\USERS\40168316\DOCUMENTS\CW1-GRAPHICS-40168316\LIBENUGRAPHICS\TERRAIN.CPP|C:\USERS\40168316\DOCUMENTS\CW1-GRAPHICS-40168316\LIBENUGRAPHICS\TEXTURE.CPP|C:\USERS\40168316\DOCUMENTS\CW1-GRAPHICS-40168316\LIBENUGRAPHICS\UTIL.CPP
C:\USERS\40168316\DOCUMENTS\CW1-GRAPHICS-40168316\LIBENUGRAPHICS\DEBUG\VC120.PDB
C:\USERS\40168316\DOCUMENTS\CW1-GRAPHICS-40168316\LIBENUGRAPHICS\DEBUG\VC120.IDB
C:\USERS\40168316\DOCUMENTS\CW1-GRAPHICS-40168316\LIBENUGRAPHICS\DEBUG\APP.OBJ
C:\USERS\40168316\DOCUMENTS\CW1-GRAPHICS-40168316\LIBENUGRAPHICS\DEBUG\ARC_BALL_CAMERA.OBJ
C:\USERS\40168316\DOCUMENTS\CW1-GRAPHICS-40168316\LIBENUGRAPHICS\DEBUG\CHASE_CAMERA.OBJ
C:\USERS\40168316\DOCUMENTS\CW1-GRAPHICS-40168316\LIBENUGRAPHICS\DEBUG\CUBEMAP.OBJ
C:\USERS\40168316\DOCUMENTS\CW1-GRAPHICS-40168316\LIBENUGRAPHICS\DEBUG\DEPTH_BUFFER.OBJ
C:\USERS\40168316\DOCUMENTS\CW1-GRAPHICS-40168316\LIBENUGRAPHICS\DEBUG\DIRECTIONAL_LIGHT.OBJ
C:\USERS\40168316\DOCUMENTS\CW1-GRAPHICS-40168316\LIBENUGRAPHICS\DEBUG\EFFECT.OBJ
C:\USERS\40168316\DOCUMENTS\CW1-GRAPHICS-40168316\LIBENUGRAPHICS\DEBUG\FRAME_BUFFER.OBJ
C:\USERS\40168316\DOCUMENTS\CW1-GRAPHICS-40168316\LIBENUGRAPHICS\DEBUG\FREE_CAMERA.OBJ
C:\USERS\40168316\DOCUMENTS\CW1-GRAPHICS-40168316\LIBENUGRAPHICS\DEBUG\GEOMETRY.OBJ
C:\USERS\40168316\DOCUMENTS\CW1-GRAPHICS-40168316\LIBENUGRAPHICS\DEBUG\GEOMETRY_BUILDER.OBJ
C:\USERS\40168316\DOCUMENTS\CW1-GRAPHICS-40168316\LIBENUGRAPHICS\DEBUG\RENDERER.OBJ
C:\USERS\40168316\DOCUMENTS\CW1-GRAPHICS-40168316\LIBENUGRAPHICS\DEBUG\SHADOW_MAP.OBJ
C:\USERS\40168316\DOCUMENTS\CW1-GRAPHICS-40168316\LIBENUGRAPHICS\DEBUG\TARGET_CAMERA.OBJ
C:\USERS\40168316\DOCUMENTS\CW1-GRAPHICS-40168316\LIBENUGRAPHICS\DEBUG\TERRAIN.OBJ
C:\USERS\40168316\DOCUMENTS\CW1-GRAPHICS-40168316\LIBENUGRAPHICS\DEBUG\TEXTURE.OBJ
C:\USERS\40168316\DOCUMENTS\CW1-GRAPHICS-40168316\LIBENUGRAPHICS\DEBUG\UTIL.OBJ
^C:\USERS\40168316\DOCUMENTS\CW1-GRAPHICS-40168316\LIBENUGRAPHICS\APP.CPP
C:\USERS\40168316\DOCUMENTS\CW1-GRAPHICS-40168316\LIBENUGRAPHICS\DEBUG\VC120.PDB
^C:\USERS\40168316\DOCUMENTS\CW1-GRAPHICS-40168316\LIBENUGRAPHICS\ARC_BALL_CAMERA.CPP
C:\USERS\40168316\DOCUMENTS\CW1-GRAPHICS-40168316\LIBENUGRAPHICS\DEBUG\VC120.PDB
^C:\USERS\40168316\DOCUMENTS\CW1-GRAPHICS-40168316\LIBENUGRAPHICS\CHASE_CAMERA.CPP
C:\USERS\40168316\DOCUMENTS\CW1-GRAPHICS-40168316\LIBENUGRAPHICS\DEBUG\VC120.PDB
^C:\USERS\40168316\DOCUMENTS\CW1-GRAPHICS-40168316\LIBENUGRAPHICS\CUBEMAP.CPP
C:\USERS\40168316\DOCUMENTS\CW1-GRAPHICS-40168316\LIBENUGRAPHICS\DEBUG\VC120.PDB
^C:\USERS\40168316\DOCUMENTS\CW1-GRAPHICS-40168316\LIBENUGRAPHICS\DEPTH_BUFFER.CPP
C:\USERS\40168316\DOCUMENTS\CW1-GRAPHICS-40168316\LIBENUGRAPHICS\DEBUG\VC120.PDB
^C:\USERS\40168316\DOCUMENTS\CW1-GRAPHICS-40168316\LIBENUGRAPHICS\DIRECTIONAL_LIGHT.CPP
C:\USERS\40168316\DOCUMENTS\CW1-GRAPHICS-40168316\LIBENUGRAPHICS\DEBUG\VC120.PDB
^C:\USERS\40168316\DOCUMENTS\CW1-GRAPHICS-40168316\LIBENUGRAPHICS\EFFECT.CPP
C:\USERS\40168316\DOCUMENTS\CW1-GRAPHICS-40168316\LIBENUGRAPHICS\DEBUG\VC120.PDB
^C:\USERS\40168316\DOCUMENTS\CW1-GRAPHICS-40168316\LIBENUGRAPHICS\FRAME_BUFFER.CPP
C:\USERS\40168316\DOCUMENTS\CW1-GRAPHICS-40168316\LIBENUGRAPHICS\DEBUG\VC120.PDB
^C:\USERS\40168316\DOCUMENTS\CW1-GRAPHICS-40168316\LIBENUGRAPHICS\FREE_CAMERA.CPP
C:\USERS\40168316\DOCUMENTS\CW1-GRAPHICS-40168316\LIBENUGRAPHICS\DEBUG\VC120.PDB
^C:\USERS\40168316\DOCUMENTS\CW1-GRAPHICS-40168316\LIBENUGRAPHICS\GEOMETRY.CPP
C:\USERS\40168316\DOCUMENTS\CW1-GRAPHICS-40168316\LIBENUGRAPHICS\DEBUG\VC120.PDB
^C:\USERS\40168316\DOCUMENTS\CW1-GRAPHICS-40168316\LIBENUGRAPHICS\GEOMETRY_BUILDER.CPP
C:\USERS\40168316\DOCUMENTS\CW1-GRAPHICS-40168316\LIBENUGRAPHICS\DEBUG\VC120.PDB
^C:\USERS\40168316\DOCUMENTS\CW1-GRAPHICS-40168316\LIBENUGRAPHICS\RENDERER.CPP
C:\USERS\40168316\DOCUMENTS\CW1-GRAPHICS-40168316\LIBENUGRAPHICS\DEBUG\VC120.PDB
^C:\USERS\40168316\DOCUMENTS\CW1-GRAPHICS-40168316\LIBENUGRAPHICS\SHADOW_MAP.CPP
C:\USERS\40168316\DOCUMENTS\CW1-GRAPHICS-40168316\LIBENUGRAPHICS\DEBUG\VC120.PDB
^C:\USERS\40168316\DOCUMENTS\CW1-GRAPHICS-40168316\LIBENUGRAPHICS\TARGET_CAMERA.CPP
C:\USERS\40168316\DOCUMENTS\CW1-GRAPHICS-40168316\LIBENUGRAPHICS\DEBUG\VC120.PDB
^C:\USERS\40168316\DOCUMENTS\CW1-GRAPHICS-40168316\LIBENUGRAPHICS\TERRAIN.CPP
C:\USERS\40168316\DOCUMENTS\CW1-GRAPHICS-40168316\LIBENUGRAPHICS\DEBUG\VC120.PDB
^C:\USERS\40168316\DOCUMENTS\CW1-GRAPHICS-40168316\LIBENUGRAPHICS\TEXTURE.CPP
C:\USERS\40168316\DOCUMENTS\CW1-GRAPHICS-40168316\LIBENUGRAPHICS\DEBUG\VC120.PDB
^C:\USERS\40168316\DOCUMENTS\CW1-GRAPHICS-40168316\LIBENUGRAPHICS\UTIL.CPP
C:\USERS\40168316\DOCUMENTS\CW1-GRAPHICS-40168316\LIBENUGRAPHICS\DEBUG\VC120.PDB
