^C:\USERS\40168316\DOCUMENTS\CW1-GRAPHICS-40168316\005 RENDERING A QUAD 3\DEBUG\MAIN.OBJ|C:\USERS\40168316\DOCUMENTS\CW1-GRAPHICS-40168316\DEBUG\LIBENUGRAPHICS.LIB
C:\USERS\40168316\DOCUMENTS\CW1-GRAPHICS-40168316\DEBUG\005 RENDERING A QUAD 3.ILK
C:\USERS\40168316\DOCUMENTS\CW1-GRAPHICS-40168316\DEBUG\005 RENDERING A QUAD 3.EXE
C:\USERS\40168316\DOCUMENTS\CW1-GRAPHICS-40168316\DEBUG\005 RENDERING A QUAD 3.PDB
