^C:\USERS\40168316\DOCUMENTS\CW1-GRAPHICS-40168316\031 MIPMAPS\MAIN.CPP
C:\USERS\40168316\DOCUMENTS\CW1-GRAPHICS-40168316\031 MIPMAPS\DEBUG\VC120.PDB
C:\USERS\40168316\DOCUMENTS\CW1-GRAPHICS-40168316\031 MIPMAPS\DEBUG\VC120.IDB
C:\USERS\40168316\DOCUMENTS\CW1-GRAPHICS-40168316\031 MIPMAPS\DEBUG\MAIN.OBJ
