^C:\USERS\40168316\DOCUMENTS\CW1-GRAPHICS-40168316\032 ANISOTROPIC FILTERING\DEBUG\MAIN.OBJ|C:\USERS\40168316\DOCUMENTS\CW1-GRAPHICS-40168316\DEBUG\LIBENUGRAPHICS.LIB
C:\USERS\40168316\DOCUMENTS\CW1-GRAPHICS-40168316\DEBUG\032 ANISOTROPIC FILTERING.ILK
C:\USERS\40168316\DOCUMENTS\CW1-GRAPHICS-40168316\DEBUG\032 ANISOTROPIC FILTERING.EXE
C:\USERS\40168316\DOCUMENTS\CW1-GRAPHICS-40168316\DEBUG\032 ANISOTROPIC FILTERING.PDB
